{
    "object" : {
        "object_class"    : "instance",
        "actions"         : [],
        "related_objects" : [],
        "type"            : "instance",
        "values" : {
            "label"     : "Test from JSON",
            "fqdn"      : "json.testsuite.zaaksysteem.nl",
            "owner"     : "betrokkene-bedrijf-1",
            "template"  : "meuk",
            "disabled"  : false,
            "active"    : false,
            "protected" : true,
            "database"  : "database_name",
            "filestore" : "/path/to/zs/meuk",
            "network_acl" : [
                "194.134.5.5 Some comment",
                "194.134.5.55"
            ]
        },
        "customer_type"   : "government",
        "security_rules"  : [],
        "relatable_types" : []
    }
}
