{
	"legacy": {
		"json": {
			"entries": []
		}
	},
	"v0": {
		"at": null,
		"comment": null,
		"next": null,
		"num_rows": "1",
		"prev": null,
		"result": [
		],
		"rows": 1,
		"status_code": "200"
	},
	"v1": {
		"api_version" : 1,
		"request_id" : "tholen-a8ca48-86f0e6",
		"result" : {
			"instance" : {
				"pager" : {
					"next" : null,
					"page" : 1,
					"pages" : 1,
					"prev" : null,
					"rows" : 1,
					"total_rows" : 1
				},
				"rows" : [
					{
						"instance" : {
							"allowed_diskspace" : 100,
							"allowed_instances" : 25,
							"available_templates" : [
							"baarn",
							"bbz",
							"brandweer",
							"bussum",
							"debilt",
							"debilt_old",
							"ede",
							"epe",
							"groningenseaports",
							"lingewaard",
							"mintlab",
							"niwo",
							"oude-ijsselstreek",
							"roosendaal",
							"solo",
							"tholen",
							"vianen",
							"voerendaal",
							"werkplein",
							"wijkbijduurstede"
							],
							"customer_reference" : null,
							"customer_type" : "government",
							"domain" : "zaaksysteem.nl",
							"id" : "ed5d4717-ee38-4e56-930a-1d94dee0362e",
							"ipaddresses" : [],
							"owner" : "betrokkene-bedrijf-1",
							"read_only" : false,
							"shortname" : "betrokkene-bedrijf-1",
							"stat_diskspace" : 0,
							"template" : "debilt"
							},
							"reference" : "ed5d4717-ee38-4e56-930a-1d94dee0362e",
							"type" : "controlpanel"
						}
					]
				},
			"reference" : null,
			"type" : "set"
		},
		"status_code" : 200
	}
}
