<?xml version="1.0" encoding="utf-8"?>
<!-- Generator: Adobe Illustrator 20.0.0, SVG Export Plug-In . SVG Version: 6.00 Build 0)  -->
<!DOCTYPE svg PUBLIC "-//W3C//DTD SVG 1.1//EN" "http://www.w3.org/Graphics/SVG/1.1/DTD/svg11.dtd">
<svg version="1.1" id="Laag_1" xmlns="http://www.w3.org/2000/svg" xmlns:xlink="http://www.w3.org/1999/xlink" x="0px" y="0px"
	 viewBox="0 0 17.1 17" style="enable-background:new 0 0 17.1 17;" xml:space="preserve">
<style type="text/css">
	.st0{fill:#FF0000;}
</style>
<g>
	<path class="st0" d="M8.6,0.2c2.4,0.1,4.3,0.9,5.9,2.4s2.4,3.5,2.4,5.9c-0.1,2.4-0.9,4.3-2.4,5.9s-3.5,2.4-5.9,2.4
		c-2.4-0.1-4.3-0.9-5.9-2.4s-2.4-3.5-2.4-5.9c0.1-2.4,0.9-4.3,2.4-5.9S6.2,0.3,8.6,0.2z M11.6,4.4l-3,3l-3-3L4.4,5.5l3,3l-3,3
		l1.2,1.2l3-3l3,3l1.2-1.2l-3-3l3-3L11.6,4.4z"/>
</g>
</svg>
