<svg width="4900" height="150" xmlns="http://www.w3.org/2000/svg" xmlns:xlink="http://www.w3.org/1999/xlink">
 <g>
  <rect id="svg_5" height="152" width="4979" fill="#F19200" y="-1.484" x="0.091"/>
  <g id="svg_6">
   <defs>
    <rect height="152" width="5243" y="-0.484" x="-0.909" id="SVGID_1_"/>
   </defs>
   <clipPath id="SVGID_2_">
    <use id="svg_7" xlink:href="#SVGID_1_"/>
   </clipPath>
   <g id="svg_8" clip-path="url(#SVGID_2_)">
    <path id="svg_9" d="m1621.18298,197.93201c-167.03601,-39.23199 -278.12402,-94.541 -538.55298,-106.936c167.03601,39.23299 278.12305,94.54198 538.55298,106.936z" fill="none"/>
    <path id="svg_10" d="m-466.815,197.93201c-167.03503,-39.23199 -278.12299,-94.541 -538.552,-106.936c167.03503,39.23299 278.12299,94.54198 538.552,106.936z" fill="none"/>
    <path id="svg_11" d="m5258.63281,90.997c167.03516,39.232 278.12305,94.54099 538.55273,106.936c-167.03564,-39.233 -278.12354,-94.542 -538.55273,-106.936z" fill="none"/>
    <path id="svg_12" d="m3709.18311,197.93201c-167.03589,-39.23199 -278.12402,-94.541 -538.55298,-106.936c167.03589,39.23299 278.12378,94.54198 538.55298,106.936z" fill="none"/>
    <path id="svg_13" d="m-466.815,197.93201c34.46899,1.64101 71.54501,2.532 111.72299,2.532c361.14301,0 472.44001,-71.795 679.59497,-116.04399c-78.66998,12.722 -172.65198,21.044 -295.59499,21.044c-521.99903,0 -521.99903,-150 -1043.99806,-150l-88.93103,115.958c35.60303,5.744 68.06506,12.389 98.65302,19.574c260.43011,12.39499 371.51709,67.70399 538.5531,106.936z" fill="#F9A800"/>
    <path id="svg_14" d="m1082.63,90.997c260.42896,12.395 371.51697,67.704 538.55298,106.936c34.46899,1.64101 71.54504,2.532 111.724,2.532c361.14502,0 472.44092,-71.79599 679.59888,-116.045c-78.67188,12.722 -172.65283,21.045 -295.59888,21.045c-522,0 -522,-150 -1044,-150c-361.14301,0 -472.44,71.795 -679.59497,116.044c78.67001,-12.722 172.65198,-21.044 295.59497,-21.044c178.258,-0.001 295.63605,17.493 393.72302,40.532z" fill="#FBC85F"/>
    <path id="svg_15" d="m291.31,204.509c-24.26001,3.923 -47.06,8.265 -68.80699,12.91c24.25999,-3.92201 47.05998,-8.265 68.80699,-12.91z" fill="#F9A800"/>
    <path id="svg_16" d="m3170.62988,90.997c260.42896,12.395 371.51709,67.704 538.55298,106.936c34.46997,1.64101 71.54492,2.532 111.72388,2.532c361.14697,0 472.44287,-71.79599 679.60205,-116.045c-78.67188,12.722 -172.65381,21.045 -295.60205,21.045c-522,0 -522,-150 -1044,-150c-361.146,0 -472.44092,71.796 -679.59888,116.045c78.67212,-12.722 172.65308,-21.045 295.59888,-21.045c178.2583,-0.001 295.63623,17.493 393.72314,40.532z" fill="#F19200"/>
    <path id="svg_17" d="m4467.30713,204.50999c-24.25684,3.92299 -47.05518,8.265 -68.79883,12.909c24.25684,-3.92299 47.05371,-8.26498 68.79883,-12.909z" fill="#F9A800"/>
    <path id="svg_18" d="m6292.91016,105.464c-522.00098,0 -522.00098,-150 -1044.00195,-150c-361.14697,0 -472.44287,71.79599 -679.60205,116.045c78.67188,-12.72201 172.6543,-21.04501 295.60205,-21.04501c178.25879,0 295.63818,17.494 393.7251,40.53201c260.42969,12.395 371.51807,67.70399 538.55273,106.93599c34.47021,1.64099 71.54639,2.532 111.7251,2.532l-13.06885,17.04201c78.56299,12.674 172.40088,20.95799 295.06885,20.95799l101.99902,-132.99999z" fill="#A2B177"/>
    <path id="svg_19" d="m2379.30811,204.509c-24.25806,3.923 -47.05688,8.265 -68.80298,12.91c24.25781,-3.92201 47.05688,-8.265 68.80298,-12.91z" fill="#F9A800"/>
    <path id="svg_20" d="m2412.50488,84.419c24.25806,-3.923 47.05688,-8.265 68.80298,-12.91c-24.25781,3.923 -47.05786,8.265 -68.80298,12.91z" fill="#F9A800"/>
    <path id="svg_21" d="m4500.50781,84.419c24.25684,-3.923 47.05518,-8.265 68.79883,-12.909c-24.25684,3.923 -47.05469,8.264 -68.79883,12.909z" fill="#F9A800"/>
    <path id="svg_22" d="m3709.18311,197.93201c-260.42896,-12.395 -371.51709,-67.70401 -538.55298,-106.936c-34.46997,-1.641 -71.54492,-2.532 -111.72388,-2.532c-361.14624,0 -472.44116,71.796 -679.59912,116.04499c78.67212,-12.722 172.65308,-21.045 295.59912,-21.045c522,0 522,150.00002 1044,150.00002c361.14697,0 472.44287,-71.79602 679.60205,-116.04501c-78.67236,12.722 -172.6543,21.045 -295.60205,21.045c-178.25928,0 -295.63623,-17.494 -393.72314,-40.532z" fill="#9EC8B1"/>
    <path id="svg_23" d="m1621.18298,197.93201c-260.42896,-12.395 -371.51697,-67.70401 -538.55298,-106.936c-34.46997,-1.641 -71.54498,-2.532 -111.724,-2.532c-361.14404,0 -472.44,71.79499 -679.59601,116.04499c78.67099,-12.722 172.65198,-21.045 295.59601,-21.045c522,0 522,150.00002 1044,150.00002c361.14502,0 472.44092,-71.79602 679.59888,-116.04501c-78.67188,12.722 -172.65283,21.045 -295.59888,21.045c-178.25806,0 -295.63696,-17.494 -393.72302,-40.532z" fill="#9EC8B1"/>
    <path id="svg_24" d="m5258.63281,90.997c-34.47021,-1.641 -71.5459,-2.53201 -111.7251,-2.53201c-361.14697,0 -472.44287,71.79601 -679.60205,116.045c78.67236,-12.722 172.6543,-21.045 295.60205,-21.045c522.00098,0 522.00098,150 1044.00195,150l88.93115,-115.95799c-35.604,-5.743 -68.06592,-12.38901 -98.65527,-19.57401c-260.42969,-12.395 -371.51758,-67.70399 -538.55273,-106.936z" fill="#9EC8B1"/>
    <path id="svg_25" d="m324.50201,84.42c24.26001,-3.923 47.061,-8.266 68.80899,-12.911c-24.26001,3.923 -47.061,8.265 -68.80899,12.911z" fill="#F9A800"/>
    <path id="svg_26" d="m-466.815,197.93201c-260.42902,-12.395 -371.51599,-67.70401 -538.552,-106.936c-34.46906,-1.641 -71.54401,-2.532 -111.72296,-2.532l13.06897,-17.042c-78.56299,-12.674 -172.401,-20.958 -295.06897,-20.958l-102,133c521.99896,0 521.99896,150.00002 1043.99692,150.00002c361.144,0 472.44,-71.79501 679.59599,-116.04501c-78.67099,12.722 -172.65199,21.045 -295.59601,21.045c-178.25793,0 -295.63594,-17.494 -393.72194,-40.532z" fill="#F9A800"/>
    <path id="svg_27" d="m5258.63281,90.997c-98.08691,-23.038 -215.46582,-40.532 -393.7251,-40.532c-122.94678,0 -216.92969,8.323 -295.60205,21.045c-21.74365,4.645 -44.54199,8.986 -68.79883,12.909c-207.1582,44.249 -318.4541,116.04501 -679.60205,116.04501c-40.17896,0 -77.25391,-0.892 -111.72388,-2.532c98.08691,23.03799 215.46484,40.532 393.72388,40.532c122.94727,0 216.93018,-8.323 295.60205,-21.045c21.74414,-4.645 44.54199,-8.98601 68.79883,-12.90901c207.1582,-44.24899 318.4541,-116.045 679.60205,-116.045c40.1792,-0.001 77.25537,0.89101 111.7251,2.53201z" fill="#FBC85F"/>
    <path id="svg_28" d="m3170.62988,90.997c-98.08691,-23.038 -215.46509,-40.532 -393.72412,-40.532c-122.94482,0 -216.927,8.323 -295.59888,21.045c-21.74609,4.645 -44.54492,8.987 -68.80298,12.91c-207.15698,44.24901 -318.4541,116.045 -679.599,116.045c-40.17908,0 -77.25403,-0.892 -111.724,-2.532c98.08594,23.03799 215.46497,40.532 393.724,40.532c122.94495,0 216.92688,-8.323 295.599,-21.045c21.74609,-4.645 44.54492,-8.987 68.80298,-12.91c207.15698,-44.24899 318.45313,-116.045 679.59888,-116.045c40.1792,-0.001 77.25415,0.89101 111.72412,2.53201z" fill="#A2B177"/>
    <path id="svg_29" d="m1082.63,90.997c-98.08698,-23.038 -215.46497,-40.532 -393.724,-40.532c-122.94299,0 -216.92398,8.322 -295.595,21.044c-21.74799,4.646 -44.548,8.988 -68.80899,12.911c-207.15401,44.24901 -318.45101,116.04401 -679.59402,116.04401c-40.17801,0 -77.254,-0.892 -111.72299,-2.532c98.086,23.03799 215.465,40.532 393.72298,40.532c122.943,0 216.925,-8.323 295.596,-21.045c21.74701,-4.64499 44.54701,-8.987 68.80702,-12.91c207.15399,-44.24901 318.45102,-116.04501 679.595,-116.04501c40.17798,0 77.25403,0.89201 111.724,2.533z" fill="#A2B177"/>
    <path id="svg_30" d="m-1005.367,90.997c-30.58795,-7.18501 -63.05096,-13.83 -98.65302,-19.57401l-13.06897,17.042c40.177,-0.001 77.25293,0.89101 111.72198,2.53201z" fill="#F9A800"/>
   </g>
   <g id="svg_31" clip-path="url(#SVGID_2_)">
    <path id="svg_32" d="m2115.18311,-28.068c-167.03601,-39.232 -278.12402,-94.541 -538.55298,-106.936c167.03589,39.23299 278.12292,94.542 538.55298,106.936z" fill="none"/>
    <path id="svg_33" d="m27.185,-28.068c-167.036,-39.232 -278.123,-94.541 -538.552,-106.93501c167.035,39.232 278.123,94.541 538.552,106.93501z" fill="none"/>
    <path id="svg_34" d="m5752.63281,-135.00301c167.03516,39.23199 278.12305,94.541 538.55273,106.936c-167.03564,-39.23299 -278.12354,-94.54199 -538.55273,-106.936z" fill="none"/>
    <path id="svg_35" d="m4203.18311,-28.068c-167.03589,-39.232 -278.12402,-94.541 -538.55298,-106.936c167.03589,39.23299 278.12378,94.542 538.55298,106.936z" fill="none"/>
    <path id="svg_36" d="m27.185,-28.068c34.469,1.641 71.545,2.532 111.72301,2.532c361.14299,0 472.44002,-71.795 679.59499,-116.044c-78.67004,12.722 -172.65204,21.044 -295.59503,21.044c-521.99901,0 -521.99901,-150.00001 -1043.99805,-150.00001l-88.93097,115.95801c35.60297,5.744 68.065,12.38901 98.65298,19.57401c260.43007,12.395 371.51707,67.70399 538.55307,106.936z" fill="#F9A800"/>
    <path id="svg_37" d="m1576.63,-135.00301c260.42896,12.395 371.51697,67.704 538.55286,106.936c34.46924,1.641 71.54517,2.532 111.72412,2.532c361.14502,0 472.44092,-71.796 679.59888,-116.04501c-78.67188,12.722 -172.65283,21.04501 -295.59888,21.04501c-522,0 -522,-149.99999 -1044,-149.99999c-361.14294,0 -472.43994,71.795 -679.59497,116.04399c78.66998,-12.722 172.65198,-21.04399 295.59497,-21.04399c178.25806,-0.00099 295.63599,17.493 393.72302,40.532z" fill="#9EC8B1"/>
    <path id="svg_38" d="m785.31,-21.491c-24.26001,3.923 -47.06,8.265 -68.80701,12.91c24.26001,-3.922 47.06,-8.265 68.80701,-12.91z" fill="#F9A800"/>
    <path id="svg_39" d="m3664.62988,-135.00301c260.42896,12.395 371.51709,67.704 538.55273,106.936c34.47021,1.641 71.54541,2.532 111.72412,2.532c361.14697,0 472.44287,-71.796 679.60205,-116.04501c-78.67188,12.722 -172.65381,21.04501 -295.60205,21.04501c-522,0 -522,-149.99999 -1044,-149.99999c-361.146,0 -472.44092,71.79599 -679.59888,116.045c78.67212,-12.722 172.65308,-21.045 295.59888,-21.045c178.2583,-0.00099 295.63623,17.493 393.72314,40.532z" fill="#F19200"/>
    <path id="svg_40" d="m4961.30713,-21.49c-24.25684,3.923 -47.05518,8.265 -68.79883,12.909c24.25684,-3.923 47.05371,-8.265 68.79883,-12.909z" fill="#F9A800"/>
    <path id="svg_41" d="m6786.91016,-120.536c-522.00098,0 -522.00098,-150.00001 -1044.00195,-150.00001c-361.14697,0 -472.44287,71.79601 -679.60205,116.04501c78.67188,-12.72202 172.6543,-21.04501 295.60205,-21.04501c178.25879,0 295.63818,17.494 393.7251,40.53201c260.42969,12.395 371.51807,67.70399 538.55273,106.93599c34.47021,1.641 71.54639,2.532 111.7251,2.532l-13.06885,17.042c78.56299,12.674 172.40088,20.958 295.06885,20.958l101.99902,-132.99999z" fill="#A2B177"/>
    <path id="svg_42" d="m2873.30811,-21.491c-24.25806,3.923 -47.05811,8.265 -68.80298,12.91c24.25781,-3.922 47.05688,-8.265 68.80298,-12.91z" fill="#F9A800"/>
    <path id="svg_43" d="m2906.50488,-141.58099c24.25806,-3.92299 47.05811,-8.265 68.80298,-12.91c-24.25781,3.923 -47.05786,8.265 -68.80298,12.91z" fill="#F9A800"/>
    <path id="svg_44" d="m4994.50781,-141.58099c24.25684,-3.92299 47.05518,-8.265 68.79883,-12.909c-24.25684,3.92299 -47.05469,8.26399 -68.79883,12.909z" fill="#F9A800"/>
    <path id="svg_45" d="m4203.18311,-28.068c-260.42896,-12.395 -371.51709,-67.704 -538.55298,-106.936c-34.46997,-1.64101 -71.54492,-2.532 -111.72388,-2.532c-361.14624,0 -472.44116,71.796 -679.59912,116.045c78.67212,-12.722 172.65308,-21.045 295.59912,-21.045c522,0 522,150 1044,150c361.14697,0 472.44287,-71.796 679.60205,-116.045c-78.67236,12.722 -172.6543,21.045 -295.60205,21.045c-178.25928,0 -295.63623,-17.494 -393.72314,-40.532z" fill="#9EC8B1"/>
    <path id="svg_46" d="m2115.18311,-28.068c-260.42896,-12.395 -371.51697,-67.704 -538.55298,-106.936c-34.46997,-1.64101 -71.54504,-2.532 -111.724,-2.532c-361.14404,0 -472.44,71.795 -679.59601,116.045c78.67102,-12.722 172.65198,-21.045 295.59601,-21.045c522,0 522,150 1044.00012,150c361.14478,0 472.44092,-71.796 679.59888,-116.045c-78.67188,12.722 -172.65308,21.045 -295.59888,21.045c-178.2583,0 -295.63721,-17.494 -393.72314,-40.532z" fill="#F9A800"/>
    <path id="svg_47" d="m5752.63281,-135.00301c-34.47021,-1.64101 -71.5459,-2.532 -111.7251,-2.532c-361.14697,0 -472.44287,71.79599 -679.60205,116.04499c78.67236,-12.722 172.6543,-21.045 295.60205,-21.045c522.00098,0 522.00098,150 1044.00195,150l88.93115,-115.958c-35.604,-5.743 -68.06592,-12.389 -98.65527,-19.574c-260.42969,-12.39499 -371.51758,-67.70399 -538.55273,-106.936z" fill="#9EC8B1"/>
    <path id="svg_48" d="m818.50201,-141.58c24.26001,-3.923 47.06097,-8.26599 68.80902,-12.911c-24.26001,3.923 -47.06104,8.265 -68.80902,12.911z" fill="#F9A800"/>
    <path id="svg_49" d="m27.185,-28.068c-260.42899,-12.395 -371.51599,-67.704 -538.552,-106.936c-34.46899,-1.64101 -71.54401,-2.532 -111.72302,-2.532l13.06903,-17.04201c-78.56299,-12.674 -172.401,-20.95799 -295.06903,-20.95799l-102,133c521.99905,0 521.99905,150 1043.99698,150c361.14401,0 472.44,-71.795 679.59598,-116.045c-78.67096,12.723 -172.65192,21.045 -295.59592,21.045c-178.25801,0 -295.63601,-17.494 -393.72201,-40.532z" fill="#F9A800"/>
    <path id="svg_50" d="m5752.63281,-135.00301c-98.08691,-23.03801 -215.46582,-40.532 -393.7251,-40.532c-122.94678,0 -216.92969,8.323 -295.60205,21.045c-21.74365,4.64499 -44.54199,8.98599 -68.79883,12.909c-207.15674,44.24901 -318.45264,116.04501 -679.60107,116.04501c-40.1792,0 -77.25391,-0.892 -111.72412,-2.532c98.08691,23.038 215.46533,40.532 393.72412,40.532c122.94678,0 216.93018,-8.323 295.60205,-21.045c21.74414,-4.645 44.54199,-8.986 68.79883,-12.909c207.1582,-44.249 318.4541,-116.045 679.60205,-116.045c40.17822,-0.00099 77.25439,0.89101 111.72412,2.532z" fill="none"/>
    <path id="svg_51" d="m3664.62988,-135.00301c-98.08691,-23.03801 -215.46509,-40.532 -393.72412,-40.532c-122.94482,0 -216.927,8.323 -295.59888,21.045c-21.74512,4.64499 -44.54492,8.987 -68.80298,12.90999c-207.15698,44.24901 -318.4541,116.04501 -679.59912,116.04501c-40.17896,0 -77.25391,-0.892 -111.72388,-2.532c98.08594,23.038 215.46509,40.532 393.72388,40.532c122.94507,0 216.927,-8.323 295.59912,-21.045c21.74487,-4.645 44.54492,-8.987 68.80298,-12.91c207.15698,-44.249 318.45313,-116.04499 679.59888,-116.04499c40.1792,-0.00099 77.25415,0.89101 111.72412,2.532z" fill="#F9A800"/>
    <path id="svg_52" d="m1576.63,-135.00301c-98.08704,-23.03801 -215.46497,-40.532 -393.724,-40.532c-122.94299,0 -216.92401,8.32199 -295.59503,21.04399c-21.74799,4.646 -44.54797,8.98801 -68.80896,12.911c-207.15399,44.24902 -318.45102,116.04402 -679.59401,116.04402c-40.178,0 -77.25399,-0.892 -111.72299,-2.532c98.08599,23.038 215.46399,40.532 393.722,40.532c122.94302,0 216.92502,-8.323 295.59598,-21.045c21.74701,-4.645 44.54706,-8.987 68.80701,-12.91c207.15601,-44.25 318.45197,-116.045 679.59601,-116.045c40.17798,0 77.25403,0.892 111.724,2.53299z" fill="#F9A800"/>
    <path id="svg_53" d="m-511.367,-135.00301c-30.58801,-7.185 -63.05103,-13.83 -98.65302,-19.57401l-13.06897,17.04201c40.177,-0.00099 77.25299,0.89101 111.72198,2.532z" fill="#F9A800"/>
   </g>
  </g>
 </g>
</svg>